{
  "count": 1154,
  "next": "https://react-ts-uimc6b.stackblitz.io/animation/?offset=20&limit=20",
  "previous": null,
  "results": [
    {
      "name": "animation CSS static",
      "url": "https://react-ts-uimc6b.stackblitz.io/1/"
    },
    {
      "name": "animation CSS 2s",
      "url": "https://react-ts-uimc6b.stackblitz.io/2/"
    },
    {
      "name": "animation CSS 4s",
      "url": "https://react-ts-uimc6b.stackblitz.io/3/"
    },
    {
      "name": "animation CSS 8s",
      "url": "https://react-ts-uimc6b.stackblitz.io/4/"
    },
    {
      "name": "animation CSS 12s",
      "url": "https://react-ts-uimc6b.stackblitz.io/5/"
    },
    {
      "name": "animation Three.js static",
      "url": "https://react-ts-uimc6b.stackblitz.io/6/"
    },
    {
      "name": "animation Three.js 2s",
      "url": "https://react-ts-uimc6b.stackblitz.io/7/"
    },
    {
      "name": "animation Three.js 4s",
      "url": "https://react-ts-uimc6b.stackblitz.io/8/"
    },
    {
      "name": "animation Three.js 8s",
      "url": "https://react-ts-uimc6b.stackblitz.io/9/"
    },
    {
      "name": "animation Three.js 12s",
      "url": "https://react-ts-uimc6b.stackblitz.io/10/"
    }
  ]
}
